{
    "members": [
    {"id": 1, "name":"Gio Medina"},
    {"id":2,"name":"Kevin Bahia" },
    {"id":3, "name":"Alex Bahia"},
    {"id":4, "name":"JJ Licuanan"},
    {"id":5, "name": "Ray Marc"}
    ]
}